{
	"config": {
		"disclaimer": {
			"exclude": [
				"Group"
			]
		}	
	},
	"modules": [
		{
			"dir": "Common_Investment_Alarm_Management",
			"name": "Common_Investment_AlarmManagement",
			"thingworx": {
				"path": "ThingWorx",
				"packageZipDir": "PTC.CI.AlarmManagement",
				"versionFile": true,
				"extension": [
					"Entities/**/*"
				]
			},
			"buildingBlock": {
				"path": "BuildingBlock",
				"packageSuffix": "-BuildingBlock",
				"packageZipDir": "PTC.CI.BB.AlarmManagement",
				"versionFile": true,
				"extension": [
					"PTC.CI.BB.AlarmManagement/**/*"
				]
			},
			"docs": [
				"Common_Investment_AlarmManagement*.docx"
			]
		},
		{
			"dir": "Common_Investment_Audit",
			"name": "Common_Investment_Audit",
			"thingworx": {
				"path": "Thingworx",
				"packageZipDir": "PTC.CI.Audit",
				"versionFile": true,
				"extension": [
					"Entities/**/*"
				]
			},
			"buildingBlock": {
				"path": "BuildingBlock",
				"packageSuffix": "-BuildingBlock",
				"packageZipDir": "PTC.CI.BB.Audit",
				"versionFile": true,
				"extension": [
					"PTC.CI.BB.Audit/**/*"
				]
			},
			"docs": [
				"Common_Investment_Audit*.docx"
			]
		},
		{
			"dir": "Common_Investment_AutoRegistration",
			"name": "Common_Investment_AutoRegistration",
			"thingworx": {
				"path": "ThingWorx",
				"packageZipDir": "PTC.CI.AutoRegistration",
				"versionFile": true,
				"extension": [
					"Entities/**/*"
				]
			},
			"buildingBlock": {
				"path": "BuildingBlock",
				"packageSuffix": "-BuildingBlock",
				"packageZipDir": "PTC.CI.BB.AutoRegistration",
				"versionFile": true,
				"extension": [
					"PTC.CI.BB.AutoRegistration/**/*"
				]
			},
			"docs": [
				"Common_Investment_AutoRegistration*.docx"
			]
		},
		{
			"dir": "Common_Investment_ConsoleFramework",
			"name": "Common_Investment_ConsoleFramework",
			"thingworx": {
				"path": "ThingWorx",
				"packageZipDir": "PTC.CI.ConsoleFramework",
				"versionFile": true,
				"extension": [
					"Entities/**/*"
				]
			},
			"docs": [
				"Common_Investment_ConsoleFramework*.docx"
			]
		},
		{
			"dir": "Common_Investment_Core",
			"name": "Common_Investment_Core",
			"thingworx": {
				"path": "ThingWorx",
				"packageZipDir": "PTC.CI.Core",
				"versionFile": true,
				"extension": [
					"Entities/**/*"
				]
			},
			"docs": [
				"Common_Investment_Core*.docx"
			]
		},
		{
			"dir": "Common_Investment_Data_Purge",
			"name": "Common_Investment_DataPurge",
			"thingworx": {
				"path": "ThingWorx",
				"packageZipDir": "PTC.CI.DataPurge",
				"versionFile": true,
				"extension": [
					"Entities/**/*"
				]
			},
			"buildingBlock": {
				"path": "BuildingBlock",
				"packageSuffix": "-BuildingBlock",
				"packageZipDir": "PTC.CI.BB.DataPurge",
				"versionFile": true,
				"extension": [
					"PTC.CI.BB.DataPurge/**/*"
				]
			},
			"docs": [
				"Common_Investment_DataPurge*.docx"
			]
		},
		{
			"dir": "Common_Investment_File_Management",
			"name": "Common_Investment_FileManagement",
			"thingworx": {
				"path": "Thingworx",
				"packageZipDir": "PTC.CI.FileManagement",
				"versionFile": true,
				"extension": [
					"Entities/**/*"
				],
				"deps": [
					"ArchiveFileManager.zip"
				]
			},
			"buildingBlock": {
				"path": "BuildingBlock",
				"packageSuffix": "-BuildingBlock",
				"packageZipDir": "PTC.CI.BB.FileManagement",
				"versionFile": true,
				"extension": [
					"PTC.CI.BB.FileManagement/**/*"
				]
			},
			"docs": [
				"Common_Investment_FileManagement*.docx"
			]
		},
		{
			"dir": "Common_Investment_Recent_Assets",
			"name": "Common_Investment_RecentAssets",
			"thingworx": {
				"path": "ThingWorx",
				"packageZipDir": "PTC.CI.RecentAssets",
				"versionFile": true,
				"extension": [
					"Entities/**/*"
				]
			},
			"docs": [
				"Common_Investment_RecentAssets*.docx"
			]
		},
		{
			"dir": "Common_Investment_Remote_Access",
			"name": "Common_Investment_RemoteAccess",
			"thingworx": {
				"path": "ThingWorx",
				"packageZipDir": "PTC.CI.RemoteAccess",
				"versionFile": true,
				"extension": [
					"Entities/**/*"
				]
			},
			"buildingBlock": {
				"path": "BuildingBlock",
				"packageSuffix": "-BuildingBlock",
				"packageZipDir": "PTC.CI.BB.RemoteAccess",
				"versionFile": true,
				"extension": [
					"PTC.CI.BB.RemoteAccess/**/*"
				]
			},
			"docs": [
				"Common_Investment_RemoteAccess*.docx"
			]
		},
		{
			"dir": "Common_Investment_ThingSearchAndListing",
			"name": "Common_Investment_ThingSearchAndListing",
			"thingworx": {
				"path": "ThingWorx",
				"packageZipDir": "PTC.CI.ThingSearchAndListing",
				"versionFile": true,
				"extension": [
					"Entities/**/*"
				],
				"deps": [
					"grid-advanced_ExtensionPackage.zip"
				]
			},
			"docs": [
				"Common_Investment_ThingSearchAndListing*.docx"
			]
		}
	],
	"source": [
		{
			"dir": "EXAMPLE-GasPinning",
			"name": "EXAMPLE-GasPinning"
		},
		{
			"dir": "EXAMPLE-ProvisioningExtension",
			"name": "EXAMPLE-ProvisioningExtension"
		},
        {
            "dir": "Common_Investment_SourceControlEntitiesInstaller/dist",
            "name": "Common_Investment_SourceControlEntitiesInstaller"
        }
	]
}